<?xml version="1.0" encoding="UTF-8"?>
<testng-results ignored="0" total="9" passed="9" failed="0" skipped="0">
  <reporter-output>
    <line>
      <![CDATA[Response body {"page":1,"per_page":6,"total":12,"total_pages":2,"data":[{"id":1,"name":"cerulean","year":2000,"color":"#98B2D1","pantone_value":"15-4020"},{"id":2,"name":"fuchsia rose","year":2001,"color":"#C74375","pantone_value":"17-2031"},{"id":3,"name":"true red","year":2002,"color":"#BF1932","pantone_value":"19-1664"},{"id":4,"name":"aqua sky","year":2003,"color":"#7BC4C4","pantone_value":"14-4811"},{"id":5,"name":"tigerlily","year":2004,"color":"#E2583E","pantone_value":"17-1456"},{"id":6,"name":"blue turquoise","year":2005,"color":"#53B0AE","pantone_value":"15-5217"}],"support":{"url":"https://reqres.in/#support-heading","text":"To keep ReqRes free, contributions towards server costs are appreciated!"}}]]>
    </line>
    <line>
      <![CDATA[Response body {"data":{"id":3,"name":"true red","year":2002,"color":"#BF1932","pantone_value":"19-1664"},"support":{"url":"https://reqres.in/#support-heading","text":"To keep ReqRes free, contributions towards server costs are appreciated!"}}]]>
    </line>
    <line>
      <![CDATA[body with user 3{"data":{"id":3,"email":"emma.wong@reqres.in","first_name":"Emma","last_name":"Wong","avatar":"https://reqres.in/img/faces/3-image.jpg"},"support":{"url":"https://reqres.in/#support-heading","text":"To keep ReqRes free, contributions towards server costs are appreciated!"}}]]>
    </line>
    <line>
      <![CDATA[Response body {"page":2,"per_page":6,"total":12,"total_pages":2,"data":[{"id":7,"email":"michael.lawson@reqres.in","first_name":"Michael","last_name":"Lawson","avatar":"https://reqres.in/img/faces/7-image.jpg"},{"id":8,"email":"lindsay.ferguson@reqres.in","first_name":"Lindsay","last_name":"Ferguson","avatar":"https://reqres.in/img/faces/8-image.jpg"},{"id":9,"email":"tobias.funke@reqres.in","first_name":"Tobias","last_name":"Funke","avatar":"https://reqres.in/img/faces/9-image.jpg"},{"id":10,"email":"byron.fields@reqres.in","first_name":"Byron","last_name":"Fields","avatar":"https://reqres.in/img/faces/10-image.jpg"},{"id":11,"email":"george.edwards@reqres.in","first_name":"George","last_name":"Edwards","avatar":"https://reqres.in/img/faces/11-image.jpg"},{"id":12,"email":"rachel.howell@reqres.in","first_name":"Rachel","last_name":"Howell","avatar":"https://reqres.in/img/faces/12-image.jpg"}],"support":{"url":"https://reqres.in/#support-heading","text":"To keep ReqRes free, contributions towards server costs are appreciated!"}}]]>
    </line>
    <line>
      <![CDATA[Response body {"name":"Daniel","job":"QA","id":"902","createdAt":"2022-11-15T15:00:22.415Z"}]]>
    </line>
    <line>
      <![CDATA[Response body {"error":"Missing password"}]]>
    </line>
    <line>
      <![CDATA[Response body {"id":4,"token":"QpwL5tke4Pnpja7X4"}]]>
    </line>
    <line>
      <![CDATA[token: QpwL5tke4Pnpja7X4]]>
    </line>
    <line>
      <![CDATA[Response body {"token":"QpwL5tke4Pnpja7X4"}]]>
    </line>
    <line>
      <![CDATA[token: QpwL5tke4Pnpja7X4]]>
    </line>
    <line>
      <![CDATA[Response body {"name":"zeus","job":"president","id":"831","createdAt":"2022-11-15T15:00:24.535Z"}]]>
    </line>
  </reporter-output>
  <suite started-at="2022-11-15T09:00:44 CST" name="Suite" finished-at="2022-11-15T09:00:54 CST" duration-ms="9801">
    <groups>
    </groups>
    <test started-at="2022-11-15T09:00:44 CST" name="Test" finished-at="2022-11-15T09:00:54 CST" duration-ms="9801">
      <class name="com.unosquare.FinalSuiteTest">
        <test-method is-config="true" signature="before()[pri:0, instance:com.unosquare.FinalSuiteTest@561b6512]" started-at="2022-11-15T09:00:44 CST" name="before" finished-at="2022-11-15T09:00:44 CST" duration-ms="24" status="PASS">
          <reporter-output>
          </reporter-output>
        </test-method> <!-- before -->
        <test-method signature="getResourceListTest()[pri:0, instance:com.unosquare.FinalSuiteTest@561b6512]" started-at="2022-11-15T09:00:45 CST" name="getResourceListTest" finished-at="2022-11-15T09:00:51 CST" duration-ms="6018" status="PASS">
          <reporter-output>
            <line>
              <![CDATA[Response body {"page":1,"per_page":6,"total":12,"total_pages":2,"data":[{"id":1,"name":"cerulean","year":2000,"color":"#98B2D1","pantone_value":"15-4020"},{"id":2,"name":"fuchsia rose","year":2001,"color":"#C74375","pantone_value":"17-2031"},{"id":3,"name":"true red","year":2002,"color":"#BF1932","pantone_value":"19-1664"},{"id":4,"name":"aqua sky","year":2003,"color":"#7BC4C4","pantone_value":"14-4811"},{"id":5,"name":"tigerlily","year":2004,"color":"#E2583E","pantone_value":"17-1456"},{"id":6,"name":"blue turquoise","year":2005,"color":"#53B0AE","pantone_value":"15-5217"}],"support":{"url":"https://reqres.in/#support-heading","text":"To keep ReqRes free, contributions towards server costs are appreciated!"}}]]>
            </line>
          </reporter-output>
        </test-method> <!-- getResourceListTest -->
        <test-method signature="getSingleResourceWithParameterTest(java.lang.String)[pri:0, instance:com.unosquare.FinalSuiteTest@561b6512]" started-at="2022-11-15T09:00:51 CST" name="getSingleResourceWithParameterTest" finished-at="2022-11-15T09:00:51 CST" duration-ms="415" status="PASS">
          <params>
            <param index="0">
              <value>
                <![CDATA[3]]>
              </value>
            </param>
          </params>
          <reporter-output>
            <line>
              <![CDATA[Response body {"data":{"id":3,"name":"true red","year":2002,"color":"#BF1932","pantone_value":"19-1664"},"support":{"url":"https://reqres.in/#support-heading","text":"To keep ReqRes free, contributions towards server costs are appreciated!"}}]]>
            </line>
          </reporter-output>
        </test-method> <!-- getSingleResourceWithParameterTest -->
        <test-method signature="getSingleUserWithParameterTest(java.lang.String)[pri:0, instance:com.unosquare.FinalSuiteTest@561b6512]" started-at="2022-11-15T09:00:51 CST" name="getSingleUserWithParameterTest" finished-at="2022-11-15T09:00:51 CST" duration-ms="318" status="PASS">
          <params>
            <param index="0">
              <value>
                <![CDATA[3]]>
              </value>
            </param>
          </params>
          <reporter-output>
            <line>
              <![CDATA[body with user 3{"data":{"id":3,"email":"emma.wong@reqres.in","first_name":"Emma","last_name":"Wong","avatar":"https://reqres.in/img/faces/3-image.jpg"},"support":{"url":"https://reqres.in/#support-heading","text":"To keep ReqRes free, contributions towards server costs are appreciated!"}}]]>
            </line>
          </reporter-output>
        </test-method> <!-- getSingleUserWithParameterTest -->
        <test-method signature="getUserListTest()[pri:0, instance:com.unosquare.FinalSuiteTest@561b6512]" started-at="2022-11-15T09:00:51 CST" name="getUserListTest" finished-at="2022-11-15T09:00:52 CST" duration-ms="287" status="PASS">
          <reporter-output>
            <line>
              <![CDATA[Response body {"page":2,"per_page":6,"total":12,"total_pages":2,"data":[{"id":7,"email":"michael.lawson@reqres.in","first_name":"Michael","last_name":"Lawson","avatar":"https://reqres.in/img/faces/7-image.jpg"},{"id":8,"email":"lindsay.ferguson@reqres.in","first_name":"Lindsay","last_name":"Ferguson","avatar":"https://reqres.in/img/faces/8-image.jpg"},{"id":9,"email":"tobias.funke@reqres.in","first_name":"Tobias","last_name":"Funke","avatar":"https://reqres.in/img/faces/9-image.jpg"},{"id":10,"email":"byron.fields@reqres.in","first_name":"Byron","last_name":"Fields","avatar":"https://reqres.in/img/faces/10-image.jpg"},{"id":11,"email":"george.edwards@reqres.in","first_name":"George","last_name":"Edwards","avatar":"https://reqres.in/img/faces/11-image.jpg"},{"id":12,"email":"rachel.howell@reqres.in","first_name":"Rachel","last_name":"Howell","avatar":"https://reqres.in/img/faces/12-image.jpg"}],"support":{"url":"https://reqres.in/#support-heading","text":"To keep ReqRes free, contributions towards server costs are appreciated!"}}]]>
            </line>
          </reporter-output>
        </test-method> <!-- getUserListTest -->
        <test-method signature="postCreateUserTest()[pri:0, instance:com.unosquare.FinalSuiteTest@561b6512]" started-at="2022-11-15T09:00:52 CST" name="postCreateUserTest" finished-at="2022-11-15T09:00:52 CST" duration-ms="604" status="PASS">
          <reporter-output>
            <line>
              <![CDATA[Response body {"name":"Daniel","job":"QA","id":"902","createdAt":"2022-11-15T15:00:22.415Z"}]]>
            </line>
          </reporter-output>
        </test-method> <!-- postCreateUserTest -->
        <test-method signature="postFailLoginTest()[pri:0, instance:com.unosquare.FinalSuiteTest@561b6512]" started-at="2022-11-15T09:00:52 CST" name="postFailLoginTest" finished-at="2022-11-15T09:00:53 CST" duration-ms="491" status="PASS">
          <reporter-output>
            <line>
              <![CDATA[Response body {"error":"Missing password"}]]>
            </line>
          </reporter-output>
        </test-method> <!-- postFailLoginTest -->
        <test-method signature="postRegisterTest()[pri:0, instance:com.unosquare.FinalSuiteTest@561b6512]" started-at="2022-11-15T09:00:53 CST" name="postRegisterTest" finished-at="2022-11-15T09:00:53 CST" duration-ms="538" status="PASS">
          <reporter-output>
            <line>
              <![CDATA[Response body {"id":4,"token":"QpwL5tke4Pnpja7X4"}]]>
            </line>
            <line>
              <![CDATA[token: QpwL5tke4Pnpja7X4]]>
            </line>
          </reporter-output>
        </test-method> <!-- postRegisterTest -->
        <test-method signature="postSuccessfulLoginTest()[pri:0, instance:com.unosquare.FinalSuiteTest@561b6512]" started-at="2022-11-15T09:00:53 CST" name="postSuccessfulLoginTest" finished-at="2022-11-15T09:00:54 CST" duration-ms="502" status="PASS">
          <reporter-output>
            <line>
              <![CDATA[Response body {"token":"QpwL5tke4Pnpja7X4"}]]>
            </line>
            <line>
              <![CDATA[token: QpwL5tke4Pnpja7X4]]>
            </line>
          </reporter-output>
        </test-method> <!-- postSuccessfulLoginTest -->
        <test-method signature="putUpdateUserTest()[pri:0, instance:com.unosquare.FinalSuiteTest@561b6512]" started-at="2022-11-15T09:00:54 CST" name="putUpdateUserTest" finished-at="2022-11-15T09:00:54 CST" duration-ms="561" status="PASS">
          <reporter-output>
            <line>
              <![CDATA[Response body {"name":"zeus","job":"president","id":"831","createdAt":"2022-11-15T15:00:24.535Z"}]]>
            </line>
          </reporter-output>
        </test-method> <!-- putUpdateUserTest -->
      </class> <!-- com.unosquare.FinalSuiteTest -->
    </test> <!-- Test -->
  </suite> <!-- Suite -->
</testng-results>
