<?xml version="1.0" encoding="UTF-8"?>
<!-- Generated by org.testng.reporters.JUnitReportReporter -->
<testsuite hostname="REM-LT-221031C" failures="0" tests="9" name="com.unosquare.FinalSuiteTest" time="9.734" errors="0" timestamp="2022-11-15T09:00:54 CST" skipped="0">
  <testcase classname="com.unosquare.FinalSuiteTest" name="postCreateUserTest" time="0.604"/>
  <system-out>
    <![CDATA[Response body {"name":"Daniel","job":"QA","id":"902","createdAt":"2022-11-15T15:00:22.415Z"}]]>
  </system-out>
  <testcase classname="com.unosquare.FinalSuiteTest" name="getSingleResourceWithParameterTest" time="0.415"/>
  <system-out>
    <![CDATA[Response body {"data":{"id":3,"name":"true red","year":2002,"color":"#BF1932","pantone_value":"19-1664"},"support":{"url":"https://reqres.in/#support-heading","text":"To keep ReqRes free, contributions towards server costs are appreciated!"}}]]>
  </system-out>
  <testcase classname="com.unosquare.FinalSuiteTest" name="postRegisterTest" time="0.538"/>
  <system-out>
    <![CDATA[Response body {"id":4,"token":"QpwL5tke4Pnpja7X4"}
token: QpwL5tke4Pnpja7X4]]>
  </system-out>
  <testcase classname="com.unosquare.FinalSuiteTest" name="postSuccessfulLoginTest" time="0.502"/>
  <system-out>
    <![CDATA[Response body {"token":"QpwL5tke4Pnpja7X4"}
token: QpwL5tke4Pnpja7X4]]>
  </system-out>
  <testcase classname="com.unosquare.FinalSuiteTest" name="getResourceListTest" time="6.018"/>
  <system-out>
    <![CDATA[Response body {"page":1,"per_page":6,"total":12,"total_pages":2,"data":[{"id":1,"name":"cerulean","year":2000,"color":"#98B2D1","pantone_value":"15-4020"},{"id":2,"name":"fuchsia rose","year":2001,"color":"#C74375","pantone_value":"17-2031"},{"id":3,"name":"true red","year":2002,"color":"#BF1932","pantone_value":"19-1664"},{"id":4,"name":"aqua sky","year":2003,"color":"#7BC4C4","pantone_value":"14-4811"},{"id":5,"name":"tigerlily","year":2004,"color":"#E2583E","pantone_value":"17-1456"},{"id":6,"name":"blue turquoise","year":2005,"color":"#53B0AE","pantone_value":"15-5217"}],"support":{"url":"https://reqres.in/#support-heading","text":"To keep ReqRes free, contributions towards server costs are appreciated!"}}]]>
  </system-out>
  <testcase classname="com.unosquare.FinalSuiteTest" name="getSingleUserWithParameterTest" time="0.318"/>
  <system-out>
    <![CDATA[body with user 3{"data":{"id":3,"email":"emma.wong@reqres.in","first_name":"Emma","last_name":"Wong","avatar":"https://reqres.in/img/faces/3-image.jpg"},"support":{"url":"https://reqres.in/#support-heading","text":"To keep ReqRes free, contributions towards server costs are appreciated!"}}]]>
  </system-out>
  <testcase classname="com.unosquare.FinalSuiteTest" name="postFailLoginTest" time="0.491"/>
  <system-out>
    <![CDATA[Response body {"error":"Missing password"}]]>
  </system-out>
  <testcase classname="com.unosquare.FinalSuiteTest" name="getUserListTest" time="0.287"/>
  <system-out>
    <![CDATA[Response body {"page":2,"per_page":6,"total":12,"total_pages":2,"data":[{"id":7,"email":"michael.lawson@reqres.in","first_name":"Michael","last_name":"Lawson","avatar":"https://reqres.in/img/faces/7-image.jpg"},{"id":8,"email":"lindsay.ferguson@reqres.in","first_name":"Lindsay","last_name":"Ferguson","avatar":"https://reqres.in/img/faces/8-image.jpg"},{"id":9,"email":"tobias.funke@reqres.in","first_name":"Tobias","last_name":"Funke","avatar":"https://reqres.in/img/faces/9-image.jpg"},{"id":10,"email":"byron.fields@reqres.in","first_name":"Byron","last_name":"Fields","avatar":"https://reqres.in/img/faces/10-image.jpg"},{"id":11,"email":"george.edwards@reqres.in","first_name":"George","last_name":"Edwards","avatar":"https://reqres.in/img/faces/11-image.jpg"},{"id":12,"email":"rachel.howell@reqres.in","first_name":"Rachel","last_name":"Howell","avatar":"https://reqres.in/img/faces/12-image.jpg"}],"support":{"url":"https://reqres.in/#support-heading","text":"To keep ReqRes free, contributions towards server costs are appreciated!"}}]]>
  </system-out>
  <testcase classname="com.unosquare.FinalSuiteTest" name="putUpdateUserTest" time="0.561"/>
  <system-out>
    <![CDATA[Response body {"name":"zeus","job":"president","id":"831","createdAt":"2022-11-15T15:00:24.535Z"}]]>
  </system-out>
</testsuite> <!-- com.unosquare.FinalSuiteTest -->
